<svg width="32" height="32" xmlns="http://www.w3.org/2000/svg">
  <path fill="none" d="M-1-1h582v402H-1z"/>
  <g>
    <path fill="#f3f1f1" d="M10.456 16l6.196-6.285a1.016 1.016 0 0 0 0-1.428.994.994 0 0 0-1.414 0l-6.899 6.999c-.375.379-.377 1.048 0 1.429l6.9 6.999a.994.994 0 0 0 1.414 0 1.016 1.016 0 0 0 0-1.428L10.456 16z"/>
    <path fill="#f3f1f1" d="M17.456 16l6.196-6.285a1.016 1.016 0 0 0 0-1.428.994.994 0 0 0-1.414 0l-6.899 6.999c-.375.379-.377 1.048 0 1.429l6.899 6.999a.994.994 0 0 0 1.414 0 1.016 1.016 0 0 0 0-1.428L17.456 16z"/>
  </g>
</svg>
