<svg xmlns="http://www.w3.org/2000/svg" width="40" height="40">
    <path fill="#FFF" fill-rule="evenodd" d="M20 40.001C8.954 40.001-.001 31.047-.001 20-.001 8.954 8.954-.001 20-.001 31.047-.001 40.001 8.954 40.001 20c0 11.047-8.954 20.001-20.001 20.001zM15.537 6.782l-1.031 3.964-1.073-3.964h-1.59c.319.936.65 1.876.969 2.813.485 1.407.787 2.468.924 3.193v4.087h1.511v-4.087l1.818-6.006h-1.528zm5.566 5.025c0-.805-.137-1.392-.422-1.772-.377-.515-.907-.772-1.59-.772-.679 0-1.21.257-1.587.772-.29.38-.426.967-.426 1.772v2.633c0 .799.136 1.393.426 1.769.377.513.908.77 1.587.77.683 0 1.213-.257 1.59-.77.285-.376.422-.969.422-1.769v-2.633zm5.04-2.453h-1.362v5.749c-.302.427-.589.638-.862.638-.182 0-.289-.108-.319-.319-.017-.045-.017-.211-.017-.53V9.354h-1.358v5.948c0 .53.045.89.12 1.118.137.38.44.559.879.559.497 0 1.014-.302 1.557-.924v.82h1.362V9.354zm4.629 10.812c-.273-1.186-1.244-2.062-2.412-2.192-2.768-.309-5.568-.311-8.356-.309-2.789-.002-5.59 0-8.357.309-1.168.13-2.138 1.006-2.411 2.192-.389 1.69-.394 3.535-.394 5.275 0 1.74 0 3.585.389 5.275.273 1.186 1.243 2.062 2.412 2.192 2.767.309 5.568.311 8.356.309 2.789.002 5.589 0 8.356-.309 1.168-.13 2.139-1.006 2.412-2.192.389-1.69.391-3.535.391-5.275 0-1.74.002-3.585-.386-5.275zm-1.621 9.188c-.373.541-.926.807-1.631.807s-1.243-.253-1.632-.762c-.286-.373-.433-.959-.433-1.75v-2.607c0-.795.13-1.377.416-1.754.39-.509.926-.763 1.616-.763.677 0 1.213.254 1.59.763.283.377.417.959.417 1.754v1.541h-2.697v1.32c0 .689.226 1.032.69 1.032.331 0 .525-.18.602-.54.013-.074.03-.374.03-.914h1.375v.196c0 .435-.015.735-.028.869a1.914 1.914 0 0 1-.315.808zm-2.353-3.894h1.349v-.688c0-.689-.226-1.033-.672-1.033-.451 0-.677.344-.677 1.033v.688zm-3.606 4.701c-.48 0-.943-.266-1.394-.823v.721h-1.349V20.07h1.349v3.262c.435-.536.898-.807 1.394-.807.536 0 .898.283 1.077.841.09.299.137.791.137 1.495v2.964c0 .689-.047 1.185-.137 1.5-.18.554-.541.836-1.077.836zm-.135-5.406c0-.672-.198-1.016-.587-1.016-.221 0-.447.105-.672.328v4.536c.225.226.451.332.672.332.389 0 .587-.332.587-1.004v-3.176zm-5.124 4.492c-.536.614-1.045.914-1.541.914-.434 0-.734-.176-.869-.553-.074-.227-.119-.582-.119-1.108v-5.884h1.349v5.48c0 .316 0 .48.012.523.032.21.135.316.316.316.27 0 .553-.208.852-.631v-5.688h1.35v7.443h-1.35v-.812zm-4.34.812h-1.501v-8.582h-1.585V20.07h4.701v1.407h-1.615v8.582zm5.498-14.318c-.44 0-.651-.348-.651-1.045v-3.163c0-.696.211-1.043.651-1.043.439 0 .65.347.65 1.043v3.163c0 .696-.211 1.045-.65 1.045z"/>
</svg>
