<svg xmlns="http://www.w3.org/2000/svg" width="693" height="107">
    <defs>
        <filter id="a" width="693" height="107" x="0" y="0" filterUnits="userSpaceOnUse">
            <feOffset dy="5" in="SourceAlpha"/>
            <feGaussianBlur result="blurOut" stdDeviation="2.828"/>
            <feFlood flood-color="#000" result="floodOut"/>
            <feComposite in="floodOut" in2="blurOut" operator="atop"/>
            <feComponentTransfer>
                <feFuncA type="linear"/>
            </feComponentTransfer>
            <feMerge>
                <feMergeNode/>
                <feMergeNode in="SourceGraphic"/>
            </feMerge>
        </filter>
    </defs>
    <path fill="#EF4035" fill-rule="evenodd" d="M650.763 76.34h33.48v14.88c-10.641 1.2-23.001 1.8-37.08 1.8-5.76 0-10.8-1.279-15.12-3.84-4.32-2.559-6.48-7.8-6.48-15.72V23.9c0-7.2 1.98-12.379 5.94-15.54 3.96-3.159 8.739-4.74 14.34-4.74 12.24 0 25.039.521 38.4 1.56v14.88h-33.12c-5.201 0-7.8 2.441-7.8 7.32v12.84l35.16.96v14.04l-35.16.96v12.24c0 5.28 2.479 7.92 7.44 7.92zm-56.4 16.08l-14.28-32.88c-3.84 0-8.64-.079-14.4-.24v33.12h-17.76V3.62h36.72c7.84 0 14.02 2.1 18.54 6.3 4.519 4.2 6.78 11.58 6.78 22.14 0 7.44-1.26 12.96-3.78 16.56-2.52 3.6-5.94 6.321-10.26 8.16l16.56 35.64h-18.12zm-4.92-70.14c-1.841-1.8-4.481-2.7-7.92-2.7h-15.84v25.68h15.84c3.439 0 6.079-.979 7.92-2.94 1.84-1.959 2.76-5.379 2.76-10.26 0-4.719-.92-7.98-2.76-9.78zm-92.758 70.74c-11.121 0-19.68-2.1-25.68-6.3-6-4.2-9-11.82-9-22.86V3.62h17.76v60.12c0 4.721 1.419 8.121 4.26 10.2 2.838 2.081 7.059 3.12 12.66 3.12 5.598 0 9.798-1.039 12.6-3.12 2.799-2.079 4.2-5.479 4.2-10.2V3.62h17.88v60.24c0 11.04-3.021 18.66-9.06 22.86-6.042 4.2-14.581 6.3-25.62 6.3zm-69.959-.6h-17.76V19.58h-24.36V3.62h66.6v15.96h-24.48v72.84zm-79.2.72c-7.44 0-13.44-1.179-18-3.54-4.56-2.359-8.061-6.84-10.5-13.44-2.441-6.6-3.66-16.059-3.66-28.38 0-11.839 1.26-21.039 3.78-27.6 2.52-6.559 6.099-11.1 10.74-13.62 4.639-2.52 10.599-3.78 17.88-3.78 5.439 0 10.56.42 15.36 1.26 4.8.84 8.919 1.821 12.36 2.94v13.8c-2.4-.559-5.801-1.039-10.2-1.44-4.401-.399-9-.6-13.8-.6-4.8 0-8.481.741-11.04 2.22-2.561 1.481-4.421 4.281-5.58 8.4-1.161 4.121-1.74 10.301-1.74 18.54 0 8.16.519 14.28 1.56 18.36 1.039 4.08 2.839 6.921 5.4 8.52 2.559 1.601 6.36 2.4 11.4 2.4 9.759 0 17.76-.399 24-1.2v13.68c-7.121 2.321-16.44 3.48-27.96 3.48zm-81.119-.12c-11.121 0-19.68-2.1-25.68-6.3-6-4.2-9-11.82-9-22.86V3.62h17.76v60.12c0 4.721 1.419 8.121 4.26 10.2 2.839 2.081 7.059 3.12 12.66 3.12 5.599 0 9.799-1.039 12.6-3.12 2.799-2.079 4.2-5.479 4.2-10.2V3.62h17.88v60.24c0 11.04-3.021 18.66-9.06 22.86-6.041 4.2-14.58 6.3-25.62 6.3zm-64.68-.6l-14.28-32.88c-3.84 0-8.64-.079-14.4-.24v33.12h-17.76V3.62h36.72c7.84 0 14.02 2.1 18.54 6.3 4.519 4.2 6.78 11.58 6.78 22.14 0 7.44-1.26 12.96-3.78 16.56-2.52 3.6-5.94 6.321-10.26 8.16l16.56 35.64h-18.12zm-4.92-70.14c-1.841-1.8-4.481-2.7-7.92-2.7h-15.84v25.68h15.84c3.439 0 6.079-.979 7.92-2.94 1.84-1.959 2.76-5.379 2.76-10.26 0-4.719-.92-7.98-2.76-9.78zm-77.999 70.14h-17.76V19.58h-24.36V3.62h66.6v15.96h-24.48v72.84zM52.81 91.04c-4.482 1.399-10.041 2.1-16.68 2.1-4.56 0-9.441-.281-14.64-.84-5.202-.559-9.6-1.279-13.2-2.16V76.1c7.119.72 16.119 1.08 27 1.08 4.878 0 8.559-.66 11.04-1.98 2.478-1.32 3.72-3.66 3.72-7.02v-3.24c0-2.64-.78-4.659-2.34-6.06-1.56-1.399-3.78-2.1-6.66-2.1h-7.56c-8.802 0-15.381-1.92-19.74-5.76-4.362-3.84-6.54-10.119-6.54-18.84v-4.32c0-16.639 9.558-24.96 28.68-24.96 4.479 0 9.12.3 13.92.9 4.8.6 9.12 1.301 12.96 2.1v14.04c-10.962-.72-19.242-1.08-24.84-1.08-4.56 0-8.001.701-10.32 2.1-2.322 1.401-3.48 3.981-3.48 7.74v2.4c0 3.041.858 5.261 2.58 6.66 1.719 1.401 4.338 2.1 7.86 2.1h8.76c7.68 0 13.539 2.1 17.58 6.3 4.038 4.2 6.06 9.701 6.06 16.5v5.04c0 6.72-1.242 11.94-3.72 15.66-2.481 3.72-5.961 6.281-10.44 7.68z" filter="url(#a)" opacity=".4"/>
</svg>
