<svg xmlns="http://www.w3.org/2000/svg" width="41" height="41">
    <path fill="#FFF" fill-rule="evenodd" d="M20.5 40.502C9.453 40.502.497 31.547.497 20.5.497 9.453 9.453.498 20.5.498S40.502 9.453 40.502 20.5c0 11.047-8.955 20.002-20.002 20.002zm9.208-30.415l-23.979 9.25a.689.689 0 0 0 .007 1.288l5.842 2.182 2.262 7.272a.688.688 0 0 0 1.093.329l3.257-2.655a.971.971 0 0 1 1.184-.033l5.874 4.265a.689.689 0 0 0 1.079-.416l4.303-20.7a.688.688 0 0 0-.922-.782zM15.711 23.688c-.331.307-.545.72-.606 1.168l-.32 2.379c-.043.318-.489.349-.577.042l-1.234-4.338a1.15 1.15 0 0 1 .502-1.294l11.419-7.032c.205-.127.416.151.24.314l-9.424 8.761z"/>
</svg>
