<?xml version="1.0" encoding="utf-8"?>
<!-- Generator: Adobe Illustrator 22.0.1, SVG Export Plug-In . SVG Version: 6.00 Build 0)  -->
<svg version="1.1" id="Layer_1" xmlns="http://www.w3.org/2000/svg" xmlns:xlink="http://www.w3.org/1999/xlink" x="0px" y="0px"
	 viewBox="0 0 512 512" style="enable-background:new 0 0 512 512;" xml:space="preserve">
<style type="text/css">
	.st0{fill:url(#SVGID_1_);}
	.st1{fill:url(#SVGID_2_);}
</style>
<g>
	
		<image style="overflow:visible;opacity:0.44;" width="598" height="598" xlink:href="840BD31CB88AEC38.png"  transform="matrix(1 0 0 1 -48 -43)">
	</image>
	<g>
		<g>
			<g>
				<linearGradient id="SVGID_1_" gradientUnits="userSpaceOnUse" x1="287.3783" y1="497.1274" x2="202.3399" y2="14.8509">
					<stop  offset="0" style="stop-color:#F64D4D"/>
					<stop  offset="1" style="stop-color:#C9252D"/>
				</linearGradient>
				<path class="st0" d="M468.9,214.6c-11.4,0-20.7,9.3-20.7,20.7v20.8c0,54.3-21.2,105.4-59.7,143.8
					c-38.4,38.4-89.5,59.5-143.8,59.5c0,0-0.1,0-0.1,0c-112.2-0.1-203.4-91.4-203.3-203.5c0-54.3,21.2-105.4,59.7-143.8
					c38.4-38.4,89.5-59.5,143.8-59.5c0,0,0.1,0,0.1,0c28.7,0,56.5,5.9,82.7,17.6c10.4,4.7,22.7,0,27.3-10.5
					c4.6-10.4,0-22.7-10.5-27.3c-31.5-14-65-21.2-99.5-21.2c-0.1,0-0.1,0-0.1,0c-65.3,0-126.8,25.4-173,71.6
					C25.5,129,0,190.5,0,255.9C0,321.2,25.4,382.7,71.6,429s107.7,71.8,173.1,71.8c0.1,0,0.1,0,0.1,0c65.3,0,126.8-25.4,173-71.6
					c46.3-46.2,71.8-107.7,71.8-173.1v-20.8C489.6,223.9,480.3,214.6,468.9,214.6z"/>
			</g>
		</g>
	</g>
</g>
<g>
	
		<image style="overflow:visible;opacity:0.44;" width="464" height="397" xlink:href="840BD31CB88AEC39.png"  transform="matrix(1 0 0 1 108 -21)">
	</image>
	<g>
		<g>
			<g>
				<linearGradient id="SVGID_2_" gradientUnits="userSpaceOnUse" x1="362.156" y1="301.2601" x2="320.2482" y2="63.5892">
					<stop  offset="0" style="stop-color:#F64D4D"/>
					<stop  offset="1" style="stop-color:#C9252D"/>
				</linearGradient>
				<path class="st1" d="M505.9,39.8c-8.1-8.1-21.2-8.1-29.2,0L244.8,271.7l-52.6-52.6c-8.1-8.1-21.2-8.1-29.2,0
					c-8.1,8.1-8.1,21.2,0,29.2l67.2,67.2c4,4,9.3,6.1,14.6,6.1s10.6-2,14.6-6.1L505.9,69.1C514,61,514,47.9,505.9,39.8z"/>
			</g>
		</g>
	</g>
</g>
</svg>
