<svg xmlns="http://www.w3.org/2000/svg" width="841" height="332">
    <path fill="#F7F6F6" fill-rule="evenodd" d="M807.444 314.34h33.48v14.88c-10.641 1.2-23.001 1.8-37.08 1.8-5.76 0-10.8-1.279-15.12-3.84-4.32-2.559-6.48-7.8-6.48-15.72V261.9c0-7.2 1.98-12.379 5.94-15.54 3.96-3.159 8.739-4.74 14.34-4.74 12.24 0 25.038.521 38.4 1.56v14.88h-33.12c-5.202 0-7.8 2.441-7.8 7.32v12.84l35.16.96v14.04l-35.16.96v12.24c0 5.28 2.478 7.92 7.44 7.92zm-86.639 11.16c-3.441-3.279-5.16-8.64-5.16-16.08v-67.8h17.76v64.92c0 5.201 2.64 7.8 7.92 7.8h28.08v16.08h-32.76c-7.121 0-12.401-1.639-15.84-4.92zm-24.06-34.2c2.92 3.6 4.38 8.481 4.38 14.64 0 8.801-2.22 15.081-6.66 18.84-4.44 3.761-11.1 5.64-19.98 5.64h-36.48v-88.8h34.92c16.879 0 25.32 7.761 25.32 23.28 0 5.28-1.08 9.581-3.24 12.9-2.16 3.321-5.201 5.501-9.12 6.54 4.32 1.041 7.939 3.36 10.86 6.96zm-17.76-31.32c-1.56-1.599-3.62-2.4-6.18-2.4h-17.04v20.64h17.28c2.56 0 4.579-.96 6.06-2.88 1.48-1.92 2.22-4.479 2.22-7.68 0-3.519-.78-6.079-2.34-7.68zm2.4 34.86c-1.88-1.959-4.34-2.94-7.38-2.94h-18.24v22.56h18.24c6.799 0 10.2-3.879 10.2-11.64 0-3.36-.941-6.019-2.82-7.98zm-79.619 16.98h-30.24l-5.52 18.6h-18.24l27.84-88.8h22.44l27.84 88.8h-18.48l-5.64-18.6zm-15.12-54.96l-10.92 39h21.84l-10.92-39zm-100.799 70.32c-4.32-2.559-6.48-7.8-6.48-15.72V261.9c0-7.2 1.98-12.379 5.94-15.54 3.96-3.159 8.74-4.74 14.34-4.74 12.24 0 25.039.521 38.4 1.56v14.88h-33.12c-5.201 0-7.8 2.441-7.8 7.32v12.84l35.16.96v14.04l-35.16.96v12.24c0 5.28 2.479 7.92 7.44 7.92h33.48v14.88c-10.64 1.2-23 1.8-37.08 1.8-5.76 0-10.8-1.279-15.12-3.84zm-56.279-120c-4.32-2.559-6.48-7.8-6.48-15.72V141.9c0-7.2 1.98-12.379 5.94-15.54 3.96-3.159 8.739-4.74 14.34-4.74 12.24 0 25.039.521 38.4 1.56v14.88h-33.12c-5.201 0-7.8 2.441-7.8 7.32v12.84l35.16.96v14.04l-35.16.96v12.24c0 5.28 2.479 7.92 7.44 7.92h33.48v14.88c-10.641 1.2-23.001 1.8-37.08 1.8-5.76 0-10.8-1.279-15.12-3.84zm-38.523-120c-4.32-2.559-6.48-7.8-6.48-15.72V21.9c0-7.2 1.98-12.379 5.94-15.54 3.96-3.159 8.739-4.74 14.34-4.74 12.24 0 25.039.521 38.4 1.56v14.88h-33.12c-5.201 0-7.8 2.441-7.8 7.32v12.84l35.16.96v14.04l-35.16.96v12.24c0 5.28 2.479 7.92 7.44 7.92h33.48v14.88c-10.641 1.2-23.001 1.8-37.08 1.8-5.76 0-10.8-1.279-15.12-3.84zm-37.68 3.24l-14.28-32.88c-3.84 0-8.64-.079-14.4-.24v33.12h-17.76V1.62h36.72c7.84 0 14.02 2.1 18.54 6.3 4.519 4.2 6.78 11.58 6.78 22.14 0 7.44-1.26 12.96-3.78 16.56-2.52 3.6-5.94 6.321-10.26 8.16l16.56 35.64h-18.12zm-4.92-70.14c-1.841-1.8-4.481-2.7-7.92-2.7h-15.84v25.68h15.84c3.439 0 6.079-.979 7.92-2.94 1.84-1.959 2.76-5.379 2.76-10.26 0-4.719-.92-7.98-2.76-9.78zm-3.118 190.14h-18.48l-5.64-18.6h-30.24l-5.52 18.6h-18.24l27.84-88.8h22.44l27.84 88.8zm-39.24-73.56l-10.92 39h21.84l-10.92-39zm-50.401-45.84c-11.12 0-19.68-2.1-25.68-6.3-6-4.2-9-11.82-9-22.86V1.62h17.76v60.12c0 4.721 1.42 8.121 4.26 10.2 2.839 2.081 7.06 3.12 12.66 3.12 5.599 0 9.799-1.039 12.6-3.12 2.8-2.079 4.2-5.479 4.2-10.2V1.62h17.88v60.24c0 11.04-3.02 18.66-9.06 22.86-6.041 4.2-14.58 6.3-25.62 6.3zm-94.319-3.42c-4.56-2.359-8.061-6.84-10.5-13.44-2.442-6.6-3.66-16.059-3.66-28.38 0-11.839 1.26-21.039 3.78-27.6 2.52-6.559 6.099-11.1 10.74-13.62 4.638-2.52 10.599-3.78 17.88-3.78 5.439 0 10.56.42 15.36 1.26 4.8.84 8.919 1.821 12.36 2.94v13.8c-2.4-.559-5.802-1.039-10.2-1.44-4.401-.399-9-.6-13.8-.6-4.8 0-8.481.741-11.04 2.22-2.562 1.481-4.422 4.281-5.58 8.4-1.161 4.121-1.74 10.301-1.74 18.54 0 8.16.519 14.28 1.56 18.36 1.038 4.08 2.838 6.921 5.4 8.52 2.559 1.601 6.36 2.4 11.4 2.4 9.759 0 17.76-.399 24-1.2v13.68c-7.122 2.321-16.44 3.48-27.96 3.48-7.44 0-13.44-1.179-18-3.54zm-35.639 122.82l-14.28-32.88c-3.84 0-8.64-.079-14.4-.24v33.12h-17.76v-88.8h36.72c7.839 0 14.019 2.1 18.54 6.3 4.519 4.2 6.78 11.58 6.78 22.14 0 7.44-1.26 12.96-3.78 16.56-2.52 3.6-5.94 6.321-10.26 8.16l16.56 35.64h-18.12zm-4.92-70.14c-1.841-1.8-4.481-2.7-7.92-2.7h-15.84v25.68h15.84c3.439 0 6.079-.979 7.92-2.94 1.84-1.959 2.76-5.379 2.76-10.26 0-4.719-.92-7.98-2.76-9.78zm-38.88-53.1c-4.32-2.559-6.48-7.8-6.48-15.72V21.9c0-7.2 1.98-12.379 5.94-15.54 3.96-3.159 8.74-4.74 14.34-4.74 12.24 0 25.039.521 38.4 1.56v14.88h-33.12c-5.201 0-7.8 2.441-7.8 7.32v12.84l35.16.96v14.04l-35.16.96v12.24c0 5.28 2.479 7.92 7.44 7.92h33.48v14.88c-10.64 1.2-23 1.8-37.08 1.8-5.76 0-10.8-1.279-15.12-3.84zM35.85 331.02c-11.121 0-19.68-2.1-25.68-6.3-6-4.2-9-11.82-9-22.86v-60.24h17.76v60.12c0 4.721 1.419 8.121 4.26 10.2 2.838 2.081 7.059 3.12 12.66 3.12 5.598 0 9.798-1.039 12.6-3.12 2.799-2.079 4.2-5.479 4.2-10.2v-60.12h17.88v60.24c0 11.04-3.021 18.66-9.06 22.86-6.042 4.2-14.58 6.3-25.62 6.3zm4.68-147.72c-2.562 0-5.88-.219-9.96-.66-4.08-.439-7.56-.859-10.44-1.26v29.04H2.37v-88.8h37.44c7.44 0 13.56 2.081 18.36 6.24 4.8 4.161 7.2 12.24 7.2 24.24 0 20.801-8.28 31.2-24.84 31.2zm-2.4-45.72h-18v29.76h17.64c3.198 0 5.619-1.2 7.26-3.6 1.638-2.4 2.46-6.24 2.46-11.52 0-9.759-3.12-14.64-9.36-14.64zm7.68-48.54c-4.482 1.399-10.041 2.1-16.68 2.1-4.56 0-9.441-.281-14.64-.84-5.202-.559-9.6-1.279-13.2-2.16V74.1c7.119.72 16.119 1.08 27 1.08 4.878 0 8.559-.66 11.04-1.98 2.478-1.32 3.72-3.66 3.72-7.02v-3.24c0-2.64-.78-4.659-2.34-6.06-1.56-1.399-3.78-2.1-6.66-2.1h-7.56c-8.802 0-15.381-1.92-19.74-5.76C2.388 45.18.21 38.901.21 30.18v-4.32C.21 9.221 9.768.9 28.89.9c4.479 0 9.12.3 13.92.9 4.8.6 9.12 1.301 12.96 2.1v14.04c-10.962-.72-19.242-1.08-24.84-1.08-4.56 0-8.001.701-10.32 2.1-2.322 1.401-3.48 3.981-3.48 7.74v2.4c0 3.041.858 5.261 2.58 6.66 1.719 1.401 4.338 2.1 7.86 2.1h8.76c7.68 0 13.539 2.1 17.58 6.3 4.038 4.2 6.06 9.701 6.06 16.5v5.04c0 6.72-1.242 11.94-3.72 15.66-2.481 3.72-5.961 6.281-10.44 7.68zm93.358 211.14v-58.56h17.76v88.8h-14.28l-37.08-58.56v58.56h-17.88v-88.8h14.28l37.2 58.56zm17.76-178.56h17.76v88.8h-17.76v-88.8zm77.88 135.96h-24.48v72.84h-17.76v-72.84h-24.36v-15.96h66.6v15.96zm-48.002-135.96h18.36l20.76 69.6 20.76-69.6h18.24l-27.84 88.8h-22.44l-27.84-88.8zm115.261 126.3c4.518 4.2 6.78 11.58 6.78 22.14 0 7.44-1.26 12.96-3.78 16.56-2.52 3.6-5.94 6.321-10.26 8.16l16.56 35.64h-18.12l-14.28-32.88c-3.84 0-8.64-.079-14.4-.24v33.12h-17.76v-88.8h36.72c7.839 0 14.019 2.1 18.54 6.3zm-37.5 9.66v25.68h15.84c3.438 0 6.078-.979 7.92-2.94 1.839-1.959 2.76-5.379 2.76-10.26 0-4.719-.921-7.98-2.76-9.78-1.842-1.8-4.482-2.7-7.92-2.7h-15.84zm104.519-15.96l27.84 88.8h-18.48l-5.64-18.6h-30.24l-5.52 18.6h-18.24l27.84-88.8h22.44zm-.48 54.24l-10.92-39-10.92 39h21.84zm1.443-85.44v-72.84h-24.36v-15.96h66.6v15.96h-24.48v72.84h-17.76zm50.038 34.14c4.639-2.52 10.599-3.78 17.88-3.78 5.439 0 10.56.42 15.36 1.26 4.8.84 8.919 1.821 12.36 2.94v13.8c-2.4-.559-5.801-1.039-10.2-1.44-4.401-.399-9-.6-13.8-.6-4.8 0-8.481.741-11.04 2.22-2.561 1.481-4.421 4.281-5.58 8.4-1.161 4.121-1.74 10.301-1.74 18.54 0 8.16.519 14.28 1.56 18.36 1.039 4.08 2.839 6.921 5.4 8.52 2.559 1.601 6.36 2.4 11.4 2.4 9.759 0 17.76-.399 24-1.2v13.68c-7.121 2.321-16.44 3.48-27.96 3.48-7.44 0-13.44-1.179-18-3.54-4.56-2.359-8.061-6.84-10.5-13.44-2.441-6.6-3.66-16.059-3.66-28.38 0-11.839 1.26-21.039 3.78-27.6 2.52-6.559 6.099-11.1 10.74-13.62z"/>
</svg>
